-1.000000,-0.200000
-0.777778,-0.200000
-0.666667,-0.007550
-0.555556,-0.200000
-0.333333,-0.200000
-0.222222,-0.007550
-0.333333,0.184900
-0.111111,0.184900
0.000000,0.377350
0.111111,0.184900
0.333333,0.184900
0.222222,-0.007550
0.333333,-0.200000
0.555556,-0.200000
0.666667,-0.007550
0.777778,-0.200000
1.000000,-0.200000
